<?xml version="1.0" encoding="utf-8"?>
<!-- Generator: Adobe Illustrator 23.0.6, SVG Export Plug-In . SVG Version: 6.00 Build 0)  -->
<svg version="1.1" id="Layer_3" xmlns="http://www.w3.org/2000/svg" xmlns:xlink="http://www.w3.org/1999/xlink" x="0px" y="0px"
	 viewBox="0 0 512 512" style="enable-background:new 0 0 512 512;" xml:space="preserve">
<style type="text/css">
	.st0{fill:#CCCCCC;}
	.st1{fill:#E0E0E0;}
	.st2{fill:#B5B5B5;}
	.st3{fill:#F0AE42;}
	.st4{fill:#C0DAFC;}
	.st5{fill:#024F89;}
	.st6{fill:#004482;}
	.st7{fill:#DB2900;}
	.st8{fill:#474747;}
	.st9{fill:#939393;}
	.st10{fill:#F2F2F2;}
	.st11{fill:#DBEBFC;}
	.st12{fill:#F9D266;}
</style>
<path class="st0" d="M336,272h128c8.8,0,16,7.2,16,16v48H336V272z"/>
<path class="st1" d="M16,336V160c0-8.8,7.2-16,16-16h352c8.8,0,16,7.2,16,16s-7.2,16-16,16h-32c-8.8,0-16,7.2-16,16v144H16z"/>
<path class="st2" d="M16,336v16c0,8.8,7.2,16,16,16h448c8.8,0,16-7.2,16-16s-7.2-16-16-16H16z"/>
<path class="st3" d="M480,288c0-8.8-7.2-16-16-16h-16v16c0,8.8,7.2,16,16,16h16V288z"/>
<path class="st4" d="M336,208h40c5,0,9.8,2.4,12.8,6.4L432,272h-96V208z"/>
<path class="st0" d="M288,304h-96V192h96V304z"/>
<path class="st5" d="M336,336H16v-32h320V336z"/>
<path class="st6" d="M288,336h-96v-32h96V336z"/>
<path class="st7" d="M48,240h32v32h32v-32h32v-32h-32v-32H80v32H48V240z"/>
<circle class="st8" cx="392" cy="376" r="40"/>
<circle class="st8" cx="88" cy="376" r="40"/>
<path class="st6" d="M320,144v-24c0-13.3,10.7-24,24-24s24,10.7,24,24v24"/>
<path class="st9" d="M376,376c0-8.8,7.2-16,16-16s16,7.2,16,16s-7.2,16-16,16S376,384.8,376,376z"/>
<path class="st9" d="M72,376c0-8.8,7.2-16,16-16s16,7.2,16,16s-7.2,16-16,16S72,384.8,72,376z"/>
<path class="st2" d="M392,304h-32v-16h32V304z"/>
<path class="st10" d="M256,248h-32v-32h32V248z"/>
<path class="st5" d="M330.5,144H368v-24c0-3.3-0.7-6.5-2-9.6h-19.5c-8.8,0-16,7.2-16,16V144z"/>
<path class="st11" d="M396,224h-36v48h72L396,224z"/>
<path class="st12" d="M478.9,282.2h-23v19.5c2.5,1.5,5.3,2.3,8.1,2.3h16v-16C480,286,479.6,284,478.9,282.2z"/>
</svg>
