<?xml version="1.0" encoding="utf-8"?>
<!-- Generator: Adobe Illustrator 23.0.6, SVG Export Plug-In . SVG Version: 6.00 Build 0)  -->
<svg version="1.1" id="Capa_1" xmlns="http://www.w3.org/2000/svg" xmlns:xlink="http://www.w3.org/1999/xlink" x="0px" y="0px"
	 viewBox="0 0 512 512" style="enable-background:new 0 0 512 512;" xml:space="preserve">
<style type="text/css">
	.st0{fill:#FD9727;}
	.st1{fill:#4A4256;}
	.st2{fill:#77D057;}
	.st3{fill:#602952;}
	.st4{fill:#306318;}
	.st5{fill:#E9EAEB;}
	.st6{fill:#FFFFFF;}
	.st7{fill:#FC502A;}
	.st8{fill:#CDEAE0;}
	.st9{fill:#E60D28;}
</style>
<path class="st0" d="M399.9,207.2c0,0,5-5,5-28.3c0-33.8-12.5-58.1-12.5-58.1h-43c0,0-12.5,24.3-12.5,58.1c0,23.3,5,28.3,5,28.3
	l-38.4,30.5c-6.2,4.9-9.8,12.4-9.8,20.3v238.6c0,8.5,6.9,15.4,15.4,15.4h123.5c8.5,0,15.4-6.9,15.4-15.4V258.1
	c0-7.9-3.6-15.4-9.8-20.3L399.9,207.2z"/>
<g>
	<rect x="293.8" y="273.5" class="st1" width="154.3" height="206.2"/>
	<path class="st1" d="M404.9,176.6c-0.6-32.5-12.4-55.8-12.4-55.8h-43c0,0-11.9,23.2-12.4,55.8H404.9z"/>
</g>
<path class="st2" d="M158.4,212.1v-50.9h-38.9v50.9c0,15.8-11.8,29.2-27.5,31.1l0,0c-16,2-28,15.6-28,31.7v223
	c0,7.8,6.3,14.1,14.1,14.1h121.8c7.8,0,14.1-6.3,14.1-14.1v-223c0-16.1-12-29.7-28-31.7l0,0C170.2,241.3,158.4,227.9,158.4,212.1z"
	/>
<path class="st3" d="M159.9,207.7H118c-2.2,0-3.9-1.8-3.9-3.9v-38.7c0-2.2,1.8-3.9,3.9-3.9h41.9c2.2,0,3.9,1.8,3.9,3.9v38.7
	C163.8,206,162,207.7,159.9,207.7z"/>
<path class="st4" d="M92,243.2L92,243.2c-16,2-28,15.6-28,31.7v223c0,7.8,6.3,14.1,14.1,14.1h121.8c7.8,0,14.1-6.3,14.1-14.1v-223
	c0-16.1-12-29.7-28-31.7l0,0C181.6,242.7,96.2,242.7,92,243.2z"/>
<path class="st5" d="M192.6,448.9v-157c0-5.6-4.5-10.1-10.1-10.1H95.3c-5.6,0-10.1,4.5-10.1,10.1v157c0,4,3.2,7.2,7.2,7.2h92.8
	C189.3,456.2,192.6,452.9,192.6,448.9z"/>
<circle class="st3" cx="138.9" cy="328.9" r="26"/>
<path class="st6" d="M160.5,440h-43.2c-4.2,0-7.6-3.4-7.6-7.6s3.4-7.6,7.6-7.6h43.2c4.2,0,7.6,3.4,7.6,7.6S164.7,440,160.5,440z"/>
<rect x="85.3" y="376.2" class="st7" width="107.3" height="27.3"/>
<path class="st8" d="M318,470.8c-2.5-1.8-3.9-4.9-3.8-8.1l5-288.5c0.2-4.4-1.5-8.8-4.6-12l-29.4-30.3c-4.4-4.5-6.8-10.5-6.8-16.7V0
	H253h-25.5v115.2c0,6.2-2.4,12.3-6.8,16.7l-29.4,30.3c-3.1,3.2-4.8,7.5-4.6,12l5,288.5c0.1,3.1-1.3,6.2-3.8,8.1
	c-1.7,1.3-2.8,3.3-2.8,5.6l0.7,24.9c0.2,6,5.1,10.7,11,10.7H253h56.1c6,0,10.9-4.8,11-10.7l0.7-24.9
	C320.8,474.1,319.8,472.1,318,470.8z"/>
<path class="st9" d="M277,99.2h-48c-2.3,0-4.2-1.9-4.2-4.2V4.2c0-2.3,1.9-4.2,4.2-4.2h48c2.3,0,4.2,1.9,4.2,4.2V95
	C281.2,97.3,279.3,99.2,277,99.2z"/>
<path class="st7" d="M217.7,228.3c22.6-14.8,47.8-14.8,70.4,0c2.1,1.4,4.9,0,5-2.6l0.6-14.7c0.2-5.1-2.8-9.8-7.5-11.8
	c-21.7-9.1-45.1-9.1-66.7,0c-4.7,2-7.7,6.7-7.5,11.8l0.6,14.7C212.8,228.3,215.6,229.7,217.7,228.3z"/>
<g>
	<path class="st6" d="M281.8,433.1h-57.7c-4.2,0-7.6-3.4-7.6-7.6s3.4-7.6,7.6-7.6h57.7c4.2,0,7.6,3.4,7.6,7.6S286,433.1,281.8,433.1
		z"/>
	<path class="st6" d="M281.8,457h-57.7c-4.2,0-7.6-3.4-7.6-7.6s3.4-7.6,7.6-7.6h57.7c4.2,0,7.6,3.4,7.6,7.6S286,457,281.8,457z"/>
</g>
<path class="st7" d="M282.4,324.6h-58.8c-2.7,0-4.9-2.2-4.9-4.9l-0.8-46.3c-0.1-2.8,2.2-5,4.9-5h60.5c2.8,0,5,2.3,4.9,5l-0.8,46.3
	C287.3,322.4,285.1,324.6,282.4,324.6z"/>
<rect x="224.7" y="19.4" class="st5" width="56.4" height="15.2"/>
<g>
	<path class="st5" d="M405.8,331.1c-23.5-10.5-46.2-10.5-69.8,0c-2.8,1.2-6.1,0.2-7.6-2.5c-2-3.3-3.9-6.6-5.9-9.9
		c-1.8-3.1-0.6-7.1,2.7-8.6c30.4-14.1,61.1-14.1,91.4,0c3.3,1.5,4.5,5.5,2.7,8.6c-2,3.3-3.9,6.6-5.9,9.9
		C411.9,331.3,408.6,332.4,405.8,331.1z"/>
	<ellipse class="st5" cx="370.9" cy="382.3" rx="38.5" ry="26.4"/>
</g>
<path class="st6" d="M410.8,450.3H331c-4.2,0-7.6-3.4-7.6-7.6s3.4-7.6,7.6-7.6h79.8c4.2,0,7.6,3.4,7.6,7.6S415,450.3,410.8,450.3z"
	/>
<path class="st1" d="M396.8,128.1h-51.7c-2.3,0-4.1-1.9-4.1-4.1V78.7c0-2.3,1.9-4.1,4.1-4.1h51.7c2.3,0,4.1,1.9,4.1,4.1V124
	C401,126.3,399.1,128.1,396.8,128.1z"/>
<rect x="340.9" y="93.9" class="st5" width="60" height="14.1"/>
</svg>
