<?xml version="1.0" encoding="utf-8"?>
<!-- Generator: Adobe Illustrator 23.0.6, SVG Export Plug-In . SVG Version: 6.00 Build 0)  -->
<svg version="1.1" id="Layer_1" xmlns="http://www.w3.org/2000/svg" xmlns:xlink="http://www.w3.org/1999/xlink" x="0px" y="0px"
	 viewBox="-27 -143.2 512 512" style="enable-background:new -27 -143.2 512 512;" xml:space="preserve">
<style type="text/css">
	.st0{fill:#FEC9A3;}
	.st1{fill:#FEB784;}
	.st2{fill:#E0E0DE;}
	.st3{fill:#1F7DC1;}
	.st4{fill:#092C42;}
	.st5{fill:#95573A;}
	.st6{fill:#004481;}
	.st7{fill:#FFB531;}
	.st8{fill:#FFCB73;}
	.st9{fill:#4DB7E5;}
	.st10{fill:#E8770C;}
	.st11{fill:#F98500;}
	.st12{fill:#FF9419;}
</style>
<g>
	<path class="st0" d="M461,352.8V234.4c0-23.9-17.6-44.1-41.2-47.5L349,176.8v-64h-80v64l-74.1,15.9c-22.1,4.7-37.9,24.3-37.9,46.9
		v113.2"/>
	<path class="st1" d="M349,164.6v-43.9h-80v43.9C293.2,180.8,324.8,180.8,349,164.6z"/>
	<path class="st2" d="M461,352.8V234.4c0-23.9-17.6-44.1-41.2-47.5L349,176.8l-17.1,48h-45.7l-17.1-48l-74.1,15.9
		c-22.1,4.7-37.9,24.3-37.9,46.9v113.2"/>
	<path class="st3" d="M461,234.4v118.4H157V239.6c0-22.6,15.8-42.2,37.9-46.9l74.1-15.9l40,112l40-112l70.8,10.1
		c2.5,0.4,4.9,0.9,7.4,1.6C447.3,194.7,461,213.3,461,234.4L461,234.4z"/>
	<path class="st4" d="M301,288.8h16v64h-16V288.8z"/>
	<path class="st1" d="M389,24.8h-8v48h8c13.3,0,24-10.7,24-24S402.3,24.8,389,24.8z"/>
	<path class="st1" d="M229.4,24.8H229c-13.3,0-24,10.7-24,24s10.7,24,24,24h8v-48H229.4z"/>
	<path class="st0" d="M381,16.8v72c0,39.4-31.6,71.4-71,72c-0.3,0-0.7,0-1,0c-39.8,0-72-32.2-72-72v-72c0-39.8,32.2-72,72-72
		c0.3,0,0.7,0,1,0C349.4-54.7,381-22.6,381,16.8z"/>
	<path class="st5" d="M274.8-2.6c22.6,4.5,45.8,4.5,68.4,0l5.8-1.2l32,36.5v-16c0-39.8-32.2-72-72-72s-72,32.2-72,72v16l32-36.5
		L274.8-2.6z"/>
	<path class="st4" d="M333,304.8h72v16h-72V304.8z"/>
	<path class="st4" d="M269,264.8h16v16h-16V264.8z"/>
	<path class="st4" d="M269,336.8h16v16h-16V336.8z"/>
	<path class="st4" d="M397,264.8h16v88h-16V264.8z"/>
	<path class="st4" d="M205,264.8h16v88h-16V264.8z"/>
	<path class="st6" d="M238.9,183.2l6.1,73.5l43.7-24.9L269,160.8L238.9,183.2z"/>
	<path class="st6" d="M329.3,231.8l43.7,24.9l6.3-75.7L349,160.8L329.3,231.8z"/>
	<path class="st7" d="M397-27.3V0.8H221v-28.1c0-46.3,37.6-83.9,83.9-83.9h8.2c21.1,0,41.5,8,57,22.3c1,0.9,2,1.9,2.9,2.8
		C388.4-70.4,397-49.3,397-27.3z"/>
	<path class="st7" d="M405.6,9.9L309,16.8l-96.6-6.9C203.7,9.3,197,2,197-6.7c0-9.2,7.4-16.6,16.6-16.6h190.9
		c9.2,0,16.6,7.4,16.6,16.6C421,2,414.3,9.3,405.6,9.9z"/>
	<path class="st8" d="M333-55.2h-48v-48c0-13.3,10.7-24,24-24s24,10.7,24,24V-55.2z"/>
	<path class="st8" d="M261-98.8v51.6h-16v-38.8C249.8-91,255.2-95.2,261-98.8z"/>
	<path class="st8" d="M373-86.1v38.8h-16v-51.6c4.7,2.9,9.1,6.2,13.1,9.9C371.1-88,372.1-87,373-86.1z"/>
	<path class="st7" d="M29,40.8h112c17.7,0,32,14.3,32,32v248c0,17.7-14.3,32-32,32H29c-17.7,0-32-14.3-32-32v-248
		C-3,55.1,11.3,40.8,29,40.8z"/>
	<path class="st9" d="M29,80.8h112v56H29V80.8z"/>
	<g>
		<path class="st10" d="M29,160.8h16v16H29V160.8z"/>
		<path class="st10" d="M61,160.8h16v16H61V160.8z"/>
		<path class="st10" d="M93,160.8h16v16H93V160.8z"/>
		<path class="st10" d="M125,160.8h16v16h-16V160.8z"/>
	</g>
	<circle class="st11" cx="85" cy="256.8" r="56"/>
	<path class="st12" d="M113.3,205.8l22.6,22.6l-79.2,79.2L34.1,285L113.3,205.8z"/>
	<path class="st10" d="M21,312.8h16v16H21V312.8z"/>
	<path class="st10" d="M133,312.8h16v16h-16V312.8z"/>
</g>
</svg>
