<?xml version="1.0" encoding="utf-8"?>
<!-- Generator: Adobe Illustrator 23.0.6, SVG Export Plug-In . SVG Version: 6.00 Build 0)  -->
<svg version="1.1" id="Layer_1" xmlns="http://www.w3.org/2000/svg" xmlns:xlink="http://www.w3.org/1999/xlink" x="0px" y="0px"
	 viewBox="-27 -143.2 512 512" style="enable-background:new -27 -143.2 512 512;" xml:space="preserve">
<style type="text/css">
	.st0{fill:#FEC9A3;}
	.st1{fill:#FEB784;}
	.st2{fill:#E0E0DE;}
	.st3{fill:#1F7DC1;}
	.st4{fill:#092C42;}
	.st5{fill:#004481;}
	.st6{fill:#7A432A;}
	.st7{fill:#2E92D0;}
	.st8{fill:#D6D6D4;}
	.st9{fill:#FEC093;}
	.st10{fill:#0767B1;}
</style>
<path class="st0" d="M365,157.4l-56-8v-64h-80v64l-56,12v52h192L365,157.4z"/>
<path class="st1" d="M309,116.2V77.4h-80v38.8C254.2,128.5,283.8,128.5,309,116.2z"/>
<path class="st2" d="M421,349.4V207c0-23.9-17.6-44.1-41.2-47.5L309,149.4l-17.1,48h-45.7l-17.1-48l-56,12v188H421z"/>
<path class="st3" d="M421,207v142.4H173v-112l-59.9,88.5c-9.4,15.3-29.4,20-44.7,10.6c-13.8-8.5-19.3-26-12.7-40.8l47.4-94.8
	c8.7-17.4,24.8-29.9,43.8-33.9l81.9-17.6l40,112l40-112l70.8,10.1C403.4,162.9,421,183.1,421,207L421,207z"/>
<g>
	<path class="st4" d="M261,261.4h16v88h-16V261.4z"/>
	<path class="st4" d="M293,277.4h72v16h-72V277.4z"/>
	<path class="st4" d="M173,277.4h72v16h-72V277.4z"/>
	<path class="st4" d="M357,237.4h16v112h-16V237.4z"/>
</g>
<path class="st5" d="M198.9,155.9l6.1,73.5l43.7-24.9L229,133.4L198.9,155.9z"/>
<path class="st5" d="M289.3,204.5l43.7,24.9l6.3-75.7L309,133.4L289.3,204.5z"/>
<path class="st1" d="M189.4-18.6H189c-13.3,0-24,10.7-24,24s10.7,24,24,24h8.5l-0.5-48H189.4z"/>
<path class="st1" d="M349-18.6h-8v48h8c13.3,0,24-10.7,24-24S362.3-18.6,349-18.6z"/>
<path class="st0" d="M341-26.6v56c0,10.6-1.3,21.2-3.9,31.5c-7.1,28.5-32.7,48.5-62.1,48.5H263c-1.6,0-3.3-0.1-4.9-0.2
	c-27.5-2.1-50.5-21.5-57.2-48.3C198.3,50.6,197,40,197,29.4v-56c0-36,26.5-66.4,62.1-71.3h0c39.4-5.4,75.7,22.1,81.2,61.5
	C340.8-33.2,341-29.9,341-26.6L341-26.6z"/>
<path class="st6" d="M234.8-57.4c22.6,4.5,45.8,4.5,68.4,0l5.8-1.2l32,37.3v-5.3c0-39.8-32.2-72-72-72s-72,32.2-72,72v5.3l32-37.3
	L234.8-57.4z"/>
<path class="st3" d="M85,341.4c-17.7,0-32-14.3-32-32v-128h64v128C117,327.1,102.7,341.4,85,341.4z"/>
<path class="st7" d="M37,21.4v32h48v32H37c0,9.8,5.5,18.8,14.3,23.2L85,125.4v120c0,13,9.7,24.6,22.7,25.3
	c13.2,0.7,24.5-9.4,25.3-22.7c0-0.4,0-0.9,0-1.3V21.4H37z"/>
<path class="st2" d="M133-26.6H77v48H37v-48c0-22.1,17.9-40,40-40h16C115.1-66.6,133-48.7,133-26.6z"/>
<path class="st8" d="M37,53.4h48v32H37V53.4z"/>
<path class="st8" d="M133-26.6H77v48H37V7.7l70-71.8C122.6-58.2,133-43.3,133-26.6L133-26.6z"/>
<path class="st4" d="M85,181.4h48v40H85V181.4z"/>
<path class="st0" d="M69,125.4h48c8.8,0,16,7.2,16,16v48c0,8.8-7.2,16-16,16H69c-8.8,0-16-7.2-16-16v-48
	C53,132.6,60.2,125.4,69,125.4z"/>
<path class="st9" d="M117,125.4H85c8.8,0,16,7.2,16,16v48c0,8.8-7.2,16-16,16h32c8.8,0,16-7.2,16-16v-48
	C133,132.6,125.8,125.4,117,125.4z"/>
<path class="st5" d="M352.5-34.8c-0.1,13.4-11,24.2-24.4,24.2c-1.3,0-2.6-0.1-3.9-0.3l-21.9-3.7c-20.9-3.5-42.2-3.5-63.1,0
	l-21.9,3.7c-13.2,2.2-25.7-6.7-27.9-19.9c-0.7-4.4-0.2-8.9,1.4-13h160C351.9-41,352.5-37.9,352.5-34.8z"/>
<path class="st3" d="M350.8-75.9v32h-160v-32c0-26.5,21.5-48,48-48h64c5.2,0,10.3,0.8,15.2,2.5c0.9,0.3,1.8,0.6,2.6,1
	C338.8-113.2,350.8-95.5,350.8-75.9z"/>
<path class="st7" d="M245-82.6h48v16h-48V-82.6z"/>
<path class="st10" d="M277-82.6h16v16h-16V-82.6z"/>
<path class="st4" d="M245-66.6h48v16h-48V-66.6z"/>
</svg>
